05_Final_script
…
library(here)

## here() starts at /home/guest/TSA_ForecastCompetition_Jiang_Zhu_Trjudy_Team

read_excel(here("Data", "load.xlsx"))

## # A tibble: 2,372 × 26
##    meter_id date                   h1    h2    h3    h4    h5    h6    h7    h8
##    <chr>    <dttm>              <dbl> <dbl> <dbl> <dbl> <dbl> <dbl> <dbl> <dbl>
##  1 0072     2005-01-01 00:00:00  3072  2911  2784  2768  2832  2904  3064  3192
##  2 0072     2005-01-02 00:00:00  2408  2328  2311  2328  2400  2552  2856  3272
##  3 0072     2005-01-03 00:00:00  2575  2528  2496  2608  2825  3376  3760  3672
##  4 0072     2005-01-04 00:00:00  2177  2016  1951  1913  2080  2624  3328  2896
##  5 0072     2005-01-05 00:00:00  1912  1768  1697  1720  1880  2472  3208  2888
##  6 0072     2005-01-06 00:00:00  2104  1976  1920  1952  2167  2736  3432  3096
##  7 0072     2005-01-07 00:00:00  2336  2296  2336  2448  2712  3408  4248  3943
##  8 0072     2005-01-08 00:00:00  2849  2695  2640  2600  2728  2984  3144  3432
##  9 0072     2005-01-09 00:00:00  3264  3199  3240  3336  3480  3641  4015  4568
## 10 0072     2005-01-10 00:00:00  3520  3568  3584  3728  3943  4680  5256  5000
## # ℹ 2,362 more rows
## # ℹ 16 more variables: h9 <dbl>, h10 <dbl>, h11 <dbl>, h12 <dbl>, h13 <dbl>,
## #   h14 <dbl>, h15 <dbl>, h16 <dbl>, h17 <dbl>, h18 <dbl>, h19 <dbl>,
## #   h20 <dbl>, h21 <dbl>, h22 <dbl>, h23 <dbl>, h24 <dbl>
…
